{
    "is_enabled": true,
    "version_name": "v28",
    "description": "",
    "cts": "2021-07-28T14:09:44.372241",
    "is_deleted": false,
    "uts": "2021-07-28T14:11:03.053851",
    "created_by": "system",
    "modified_by": "system",
    "xml_content": "<?xml version=\"1.0\" encoding=\"UTF-8\"?>\n<bpmn:definitions xmlns:bpmn=\"http://www.omg.org/spec/BPMN/20100524/MODEL\" xmlns:bpmndi=\"http://www.omg.org/spec/BPMN/20100524/DI\" xmlns:dc=\"http://www.omg.org/spec/DD/20100524/DC\" xmlns:xsi=\"http://www.w3.org/2001/XMLSchema-instance\" xmlns:di=\"http://www.omg.org/spec/DD/20100524/DI\" xmlns:camunda=\"http://camunda.org/schema/1.0/bpmn\" id=\"definition_f95d3540-b35f-4d61-ad74-600e3ae33a88\" targetNamespace=\"http://bpmn.io/schema/bpmn\" exporter=\"Camunda Modeler\" exporterVersion=\"2.2.4\"><bpmn:process id=\"f95d3540-b35f-4d61-ad74-600e3ae33a88\" name=\"Version 1\" isExecutable=\"true\" expression=\"\"><bpmn:startEvent id=\"StartEvent_f95d3540-b35f-4d61-ad74-600e3ae33a88\"><bpmn:outgoing>SequenceFlow_1psbhw1</bpmn:outgoing></bpmn:startEvent><bpmn:task id=\"Task_0f9ui39\" name=\"hma_read_csv_ts\" task_name=\"hma_read_csv_ts\" task_id=\"3cb7f750-ddaa-4517-ac97-514a1dc678ca\" version_id=\"default\" config__dependencies=\"any\" config__functionconfiguration__number_of_files=\"&#34;1&#34;\"><bpmn:incoming>SequenceFlow_1psbhw1</bpmn:incoming><bpmn:outgoing>SequenceFlow_1eddkxe</bpmn:outgoing></bpmn:task><bpmn:exclusiveGateway id=\"ExclusiveGateway_00nsqw7\"><bpmn:incoming>SequenceFlow_1eddkxe</bpmn:incoming><bpmn:outgoing>SequenceFlow_0rs3vdj</bpmn:outgoing><bpmn:outgoing>SequenceFlow_1p2f3gn</bpmn:outgoing></bpmn:exclusiveGateway><bpmn:sequenceFlow id=\"SequenceFlow_1eddkxe\" sourceRef=\"Task_0f9ui39\" targetRef=\"ExclusiveGateway_00nsqw7\" /><bpmn:subProcess id=\"4b8ef9c1-aa48-4096-a785-5fc823c3a045\" name=\"casplit\" task_name=\"casplit\" task_id=\"4b8ef9c1-aa48-4096-a785-5fc823c3a045\" version_id=\"default\"><bpmn:incoming>SequenceFlow_1p2f3gn</bpmn:incoming><bpmn:outgoing>SequenceFlow_1evb17e</bpmn:outgoing></bpmn:subProcess><bpmn:task id=\"Task_17mjyyy\" name=\"hma_move_to_completed\" task_name=\"hma_move_to_completed\" task_id=\"d0ae10ea-4840-4c74-b8cc-7c48a0467a2b\" version_id=\"default\" config__dependencies=\"any\"><bpmn:incoming>SequenceFlow_1evb17e</bpmn:incoming><bpmn:outgoing>SequenceFlow_1csjfo6</bpmn:outgoing></bpmn:task><bpmn:endEvent id=\"EndEvent_08aiec6\"><bpmn:incoming>SequenceFlow_0rs3vdj</bpmn:incoming><bpmn:incoming>SequenceFlow_1csjfo6</bpmn:incoming></bpmn:endEvent><bpmn:sequenceFlow id=\"SequenceFlow_0rs3vdj\" sourceRef=\"ExclusiveGateway_00nsqw7\" targetRef=\"EndEvent_08aiec6\" condition=\"inputs[&#34;file_path&#34;]==&#34;na&#34;\"><bpmn:conditionExpression xsi:type=\"bpmn:tFormalExpression\">inputs[\"file_path\"]==\"na\"</bpmn:conditionExpression></bpmn:sequenceFlow><bpmn:sequenceFlow id=\"SequenceFlow_1csjfo6\" sourceRef=\"Task_17mjyyy\" targetRef=\"EndEvent_08aiec6\" /><bpmn:sequenceFlow id=\"SequenceFlow_1evb17e\" sourceRef=\"4b8ef9c1-aa48-4096-a785-5fc823c3a045\" targetRef=\"Task_17mjyyy\" /><bpmn:sequenceFlow id=\"SequenceFlow_1p2f3gn\" sourceRef=\"ExclusiveGateway_00nsqw7\" targetRef=\"4b8ef9c1-aa48-4096-a785-5fc823c3a045\" condition=\"inputs[&#34;file_path&#34;] != &#34;na&#34;\"><bpmn:conditionExpression xsi:type=\"bpmn:tFormalExpression\">inputs[\"file_path\"] != \"na\"</bpmn:conditionExpression></bpmn:sequenceFlow><bpmn:sequenceFlow id=\"SequenceFlow_1psbhw1\" sourceRef=\"StartEvent_f95d3540-b35f-4d61-ad74-600e3ae33a88\" targetRef=\"Task_0f9ui39\" /></bpmn:process><bpmndi:BPMNDiagram id=\"BPMNDiagram_1\"><bpmndi:BPMNPlane id=\"BPMNPlane_1\" bpmnElement=\"f95d3540-b35f-4d61-ad74-600e3ae33a88\"><bpmndi:BPMNShape id=\"StartEvent_0e6r49g_di\" bpmnElement=\"StartEvent_f95d3540-b35f-4d61-ad74-600e3ae33a88\"><dc:Bounds x=\"173\" y=\"102\" width=\"36\" height=\"36\" /></bpmndi:BPMNShape><bpmndi:BPMNShape id=\"Task_0f9ui39_di\" bpmnElement=\"Task_0f9ui39\"><dc:Bounds x=\"250\" y=\"80\" width=\"100\" height=\"80\" /></bpmndi:BPMNShape><bpmndi:BPMNShape id=\"ExclusiveGateway_00nsqw7_di\" bpmnElement=\"ExclusiveGateway_00nsqw7\" isMarkerVisible=\"true\"><dc:Bounds x=\"459\" y=\"95\" width=\"50\" height=\"50\" /></bpmndi:BPMNShape><bpmndi:BPMNEdge id=\"SequenceFlow_1eddkxe_di\" bpmnElement=\"SequenceFlow_1eddkxe\"><di:waypoint x=\"350\" y=\"120\" /><di:waypoint x=\"459\" y=\"120\" /></bpmndi:BPMNEdge><bpmndi:BPMNShape id=\"SubProcess_0uszqtu_di\" bpmnElement=\"4b8ef9c1-aa48-4096-a785-5fc823c3a045\"><dc:Bounds x=\"434\" y=\"-69\" width=\"100\" height=\"80\" /></bpmndi:BPMNShape><bpmndi:BPMNShape id=\"Task_17mjyyy_di\" bpmnElement=\"Task_17mjyyy\"><dc:Bounds x=\"652\" y=\"-69\" width=\"100\" height=\"80\" /></bpmndi:BPMNShape><bpmndi:BPMNShape id=\"EndEvent_08aiec6_di\" bpmnElement=\"EndEvent_08aiec6\"><dc:Bounds x=\"684\" y=\"102\" width=\"36\" height=\"36\" /></bpmndi:BPMNShape><bpmndi:BPMNEdge id=\"SequenceFlow_0rs3vdj_di\" bpmnElement=\"SequenceFlow_0rs3vdj\"><di:waypoint x=\"509\" y=\"120\" /><di:waypoint x=\"684\" y=\"120\" /></bpmndi:BPMNEdge><bpmndi:BPMNEdge id=\"SequenceFlow_1csjfo6_di\" bpmnElement=\"SequenceFlow_1csjfo6\"><di:waypoint x=\"702\" y=\"11\" /><di:waypoint x=\"702\" y=\"102\" /></bpmndi:BPMNEdge><bpmndi:BPMNEdge id=\"SequenceFlow_1evb17e_di\" bpmnElement=\"SequenceFlow_1evb17e\"><di:waypoint x=\"534\" y=\"-29\" /><di:waypoint x=\"652\" y=\"-29\" /></bpmndi:BPMNEdge><bpmndi:BPMNEdge id=\"SequenceFlow_1p2f3gn_di\" bpmnElement=\"SequenceFlow_1p2f3gn\"><di:waypoint x=\"484\" y=\"95\" /><di:waypoint x=\"484\" y=\"11\" /></bpmndi:BPMNEdge><bpmndi:BPMNEdge id=\"SequenceFlow_1psbhw1_di\" bpmnElement=\"SequenceFlow_1psbhw1\"><di:waypoint x=\"209\" y=\"120\" /><di:waypoint x=\"250\" y=\"120\" /></bpmndi:BPMNEdge></bpmndi:BPMNPlane></bpmndi:BPMNDiagram></bpmn:definitions>",
    "is_default": false,
    "is_published": true,
    "tasks": [
        {
            "id": "4b8ef9c1-aa48-4096-a785-5fc823c3a045",
            "name": "casplit",
            "task_name": "casplit",
            "task_id": "4b8ef9c1-aa48-4096-a785-5fc823c3a045",
            "version_id": "default"
        },
        {
            "id": "Task_0f9ui39",
            "name": "hma_read_csv_ts",
            "task_name": "hma_read_csv_ts",
            "task_id": "3cb7f750-ddaa-4517-ac97-514a1dc678ca",
            "version_id": "default",
            "config__dependencies": "any",
            "config__functionconfiguration__number_of_files": "\"1\""
        },
        {
            "id": "Task_17mjyyy",
            "name": "hma_move_to_completed",
            "task_name": "hma_move_to_completed",
            "task_id": "d0ae10ea-4840-4c74-b8cc-7c48a0467a2b",
            "version_id": "default",
            "config__dependencies": "any"
        }
    ],
    "pipeline_id": "c335ed1a-10c2-48b5-8f6b-975414ea3de6",
    "version_id": "7e830998-6ef8-40d1-ac3c-edc4a5769f93",
    "parent_version_id": "5c4fec29-1206-4f1a-b8de-39f731dbc8b0",
    "timeout": "",
    "input_schema": {},
    "output_schema": {},
    "_XpmsObjectMixin__type": "PipelineVersion",
    "_XpmsObjectMixin__api_version": "10.0",
    "pulse_enabled": false,
    "cron_expr": "*/3 * * * *",
    "generate_api": false
}