{
    "name": "version 1",
    "description": "",
    "created_by": "system",
    "modified_by": "system",
    "cts": "2021-07-02T11:06:49.186968",
    "uts": "2021-07-02T11:12:25.929386",
    "_XpmsObjectMixin__type": "CustomFunctionVersion",
    "_XpmsObjectMixin__api_version": "10.0",
    "is_enabled": true,
    "is_deleted": false,
    "is_default": true,
    "is_published": true,
    "function_id": "e7a65b5e-ac73-4440-ac32-fe894134a5bd",
    "function_name": "audit_0_9",
    "version_id": "5266b919-2cc8-4ef0-9397-6c003294ec3f",
    "function_path": "functions/e7a65b5e-ac73-4440-ac32-fe894134a5bd/5266b919-2cc8-4ef0-9397-6c003294ec3f/e7a65b5e-ac73-4440-ac32-fe894134a5bd_5266b919-2cc8-4ef0-9397-6c003294ec3f.py",
    "func_ipynb_path": "functions/e7a65b5e-ac73-4440-ac32-fe894134a5bd/5266b919-2cc8-4ef0-9397-6c003294ec3f/e7a65b5e-ac73-4440-ac32-fe894134a5bd_5266b919-2cc8-4ef0-9397-6c003294ec3f.ipynb",
    "config": []
}