{
    "name": "extract_document_elements",
    "description": "service to extract elements from document",
    "created_by": "system",
    "modified_by": "system",
    "cts": "",
    "uts": "2021-07-28T04:58:59.222017",
    "_XpmsObjectMixin__type": "Service",
    "_XpmsObjectMixin__api_version": "10.0",
    "service_id": "ae784799-54c0-461f-a95b-4f340ad24e70",
    "service_key": "extract_document_elements_key",
    "display_name": "Extract Document Elements",
    "feedback_supported": true,
    "is_deleted": false,
    "is_enabled": true,
    "is_service": true,
    "object_type": [
        "document"
    ],
    "request_schema": "{\"type\": \"object\", \"properties\": {\"request_id\": {\"type\": \"string\"}, \"solution_id\": {\"type\": \"string\"}, \"data\": {\"type\": \"object\", \"properties\": {\"doc_id\": {\"type\": \"string\"}}, \"required\": [\"doc_id\"]}, \"trigger\": {\"enum\": [\"extract_document_elements\"]}}, \"required\": [\"request_id\", \"solution_id\", \"trigger\", \"data\"]}",
    "response_schema": "{\"type\": \"object\", \"properties\": {\"request_id\": {\"type\": \"string\"}, \"solution_id\": {\"type\": \"string\"}, \"metadata\": {\"type\": \"object\", \"properties\": {\"doc_id\": {\"type\": \"string\"}, \"document_elements\": {\"type\": \"array\"}}, \"required\": [\"doc_id\"]}, \"status\": {\"type\": \"object\"}, \"trigger\": {\"enum\": [\"extract_document_elements_response\"]}}, \"required\": [\"request_id\", \"solution_id\", \"trigger\", \"metadata\"]}",
    "request_trigger": "extract_document_elements",
    "response_trigger": "extract_document_elements_response",
    "headers": {},
    "service_configuration": "{}",
    "service_configuration_schema": "{}",
    "feedback_endpoint": "",
    "method": "GET",
    "service_endpoint": "",
    "timeout": {
        "unit": "seconds",
        "value": "240"
    },
    "category_id": "category_3",
    "category": "Element Extraction",
    "service_name": "extract_document_elements",
    "service_type": "INTERNAL"
}