{
    "name": "process_document_rules",
    "description": "service to process rules for a document",
    "created_by": "system",
    "modified_by": "system",
    "cts": "",
    "uts": "2021-07-28T04:58:59.275885",
    "_XpmsObjectMixin__type": "Service",
    "_XpmsObjectMixin__api_version": "10.0",
    "service_id": "b639dd00-87ca-4e57-99fb-4b4c8490b3d4",
    "service_key": "processed_rules",
    "display_name": "Process Document Rules",
    "feedback_supported": false,
    "is_deleted": false,
    "is_enabled": true,
    "is_service": true,
    "object_type": [
        "document"
    ],
    "request_schema": "{\"type\": \"object\", \"properties\": {\"request_id\": {\"type\": \"string\"}, \"solution_id\": {\"type\": \"string\"}, \"data\": {\"type\": \"object\", \"properties\": {\"doc_id\": {\"type\": \"string\"}}, \"required\": [\"doc_id\"]}, \"trigger\": {\"enum\": [\"process_document_rules\"]}}, \"required\": [\"request_id\", \"solution_id\", \"trigger\", \"data\"]}",
    "response_schema": "{\"type\": \"object\", \"properties\": {\"request_id\": {\"type\": \"string\"}, \"solution_id\": {\"type\": \"string\"}, \"metadata\": {\"type\": \"object\", \"properties\": {\"doc_id\": {\"type\": \"string\"}}, \"required\": [\"doc_id\"]}, \"status\": {\"type\": \"object\"}, \"trigger\": {\"enum\": [\"process_document_rules_response\"]}}, \"required\": [\"request_id\", \"solution_id\", \"trigger\", \"metadata\"]}",
    "request_trigger": "process_document_rules",
    "response_trigger": "process_document_rules_response",
    "headers": {},
    "service_configuration": "{}",
    "service_configuration_schema": "{}",
    "feedback_endpoint": "",
    "method": "GET",
    "service_endpoint": "",
    "timeout": {
        "unit": "seconds",
        "value": "240"
    },
    "category_id": "category_4",
    "category": "Rule",
    "service_name": "process_document_rules",
    "service_type": "INTERNAL"
}