{
    "name": "convert_img_to_page",
    "description": "service to convert image to page",
    "created_by": "system",
    "modified_by": "system",
    "cts": "",
    "uts": "2021-07-28T04:58:59.003184",
    "_XpmsObjectMixin__type": "Service",
    "_XpmsObjectMixin__api_version": "10.0",
    "service_id": "b98c25af-98f7-43ee-8b52-d6901efbd26a",
    "service_key": "convert_img_to_page_key",
    "display_name": "Convert image to page",
    "feedback_supported": false,
    "is_deleted": false,
    "is_enabled": true,
    "is_service": true,
    "object_type": [
        "document"
    ],
    "request_schema": "{\"type\": \"object\", \"properties\": {\"request_id\": {\"type\": \"string\"}, \"solution_id\": {\"type\": \"string\"}, \"data\": {\"type\": \"object\", \"properties\": {\"doc_id\": {\"type\": \"string\"}}, \"required\": [\"doc_id\"]}, \"trigger\": {\"enum\": [\"convert_img_to_page\"]}}, \"required\": [\"request_id\", \"solution_id\", \"trigger\", \"data\"]}",
    "response_schema": "{\"type\": \"object\", \"properties\": {\"request_id\": {\"type\": \"string\"}, \"solution_id\": {\"type\": \"string\"}, \"metadata\": {\"type\": \"object\", \"properties\": {\"doc_id\": {\"type\": \"string\"}, \"converted_document\": {\"type\": \"array\"}}, \"required\": [\"doc_id\"]}, \"status\": {\"type\": \"object\"}, \"trigger\": {\"enum\": [\"convert_img_to_page_response\"]}}, \"required\": [\"request_id\", \"solution_id\", \"trigger\", \"metadata\"]}",
    "request_trigger": "convert_img_to_page",
    "response_trigger": "convert_img_to_page_response",
    "headers": {},
    "service_configuration": "{}",
    "service_configuration_schema": "{}",
    "feedback_endpoint": "",
    "method": "GET",
    "service_endpoint": "",
    "timeout": {
        "unit": "seconds",
        "value": "10"
    },
    "category_id": "category_2",
    "category": "Document Processing",
    "service_name": "convert_img_to_page",
    "service_type": "INTERNAL"
}