{
    "task_class": "xpms_lib_dag.tasks.function_task.FunctionTask",
    "exec_type": "sync",
    "compatible_groups": [
        "default_dependency_package_group"
    ],
    "is_enabled": true,
    "category": "functions.Function.Unknown",
    "name": "split_hma_check_files",
    "description": "imported git function",
    "cts": "2021-06-24T10:56:00.024288",
    "is_deleted": false,
    "uts": "2021-06-24T10:56:00.024297",
    "default_version": "2223af18-5f50-4331-857f-b38c245838be",
    "created_by": "system",
    "modified_by": "system",
    "asset_source": {
        "type": "",
        "name": "",
        "version": ""
    },
    "pulse_enabled": false,
    "_XpmsObjectMixin__type": "TaskVersionBundle",
    "_XpmsObjectMixin__api_version": "10.0",
    "task_id": "3069487b-74ac-4523-aba3-1a26f4e632e5"
}