{
    "name": "1bb347746c",
    "description": "",
    "created_by": "system",
    "modified_by": "system",
    "cts": "2021-07-27T10:28:09.581291",
    "uts": "2021-07-27T10:28:22.498015",
    "_XpmsObjectMixin__type": "CustomFunctionVersion",
    "_XpmsObjectMixin__api_version": "10.0",
    "is_enabled": false,
    "is_deleted": false,
    "is_default": false,
    "is_published": true,
    "function_id": "3069487b-74ac-4523-aba3-1a26f4e632e5",
    "function_name": "split_hma_check_files",
    "version_id": "1a2cd73f-6628-448f-8849-d8594aad8a08",
    "function_path": "functions/3069487b-74ac-4523-aba3-1a26f4e632e5/1a2cd73f-6628-448f-8849-d8594aad8a08/3069487b-74ac-4523-aba3-1a26f4e632e5_1a2cd73f-6628-448f-8849-d8594aad8a08.py",
    "func_ipynb_path": "functions/3069487b-74ac-4523-aba3-1a26f4e632e5/1a2cd73f-6628-448f-8849-d8594aad8a08/3069487b-74ac-4523-aba3-1a26f4e632e5_1a2cd73f-6628-448f-8849-d8594aad8a08.ipynb",
    "config": [
        {
            "fieldType": "textbox",
            "config_path": "config.functionconfiguration.number_of_files",
            "data_type": "string",
            "description": "",
            "hidden": false,
            "multi_select": false,
            "name": "number_of_files",
            "op_type": "continuous",
            "ui_component": "",
            "value": null,
            "_XpmsObjectMixin__api_version": "1.0.13",
            "_XpmsObjectMixin__type": "StringConfiguration"
        }
    ]
}