{
    "pipeline_id": "d3b3115a-9514-4ad2-bbc1-7a856d27655f",
    "pulse_enabled": true,
    "input_schema": {},
    "output_schema": {},
    "is_enabled": true,
    "category": "pipeline",
    "name": "cron_split_1",
    "description": "",
    "cts": "2021-06-29T16:53:21.196467",
    "is_deleted": false,
    "uts": "2021-07-29T08:14:12.972470",
    "default_version": "56164ad3-88d0-43d0-a3f7-ff4be765a818",
    "created_by": "system",
    "modified_by": "system",
    "asset_source": {
        "type": "",
        "name": "",
        "version": ""
    },
    "_XpmsObjectMixin__type": "Pipeline",
    "_XpmsObjectMixin__api_version": "10.0",
    "generate_api": false
}