{
    "create_ts": "2021-07-29 07:59:44.804117",
    "task_id": "bL1JHikMRL2LVP9fI01ezw",
    "version_id": "v1",
    "task_name": "SKL Power Transformer",
    "task_class": "ml_lib.model.dag_tasks.ml_task.MLTask",
    "name": "SKL Power Transformer",
    "description": "Scikit-Learn Wrapper interface for Power Transformer.",
    "start": null,
    "end": null,
    "tasks": {},
    "config": {
        "algorithm": {
            "auto_tuner": {
                "name": "grid_search"
            },
            "class": "sklearn.preprocessing.PowerTransformer"
        },
        "source_type": "lib",
        "source": "ml_lib.resources.task_scripts.preprocessing_power_transformer",
        "files": []
    },
    "exec_type": null,
    "category": "ml.Data Transformation",
    "is_enabled": false,
    "is_published": true,
    "is_deleted": false,
    "compatible_groups": [
        "default_dependency_package_group"
    ],
    "extras": {
        "ui_index": "sklearn.preprocessing.PowerTransformer",
        "x_config": [
            {
                "name": "Column Name/s",
                "description": "Column names on which imputation is to be performed",
                "data_type": "string",
                "op_type": "continuous",
                "value": "all",
                "multi_select": true,
                "hidden": false,
                "config_path": "config.algorithm.configuration.col_name",
                "ui_component": "",
                "_XpmsObjectMixin__type": "StringConfiguration",
                "_XpmsObjectMixin__api_version": "10.0"
            },
            {
                "options": [
                    "yeo-johnson",
                    "box-cox"
                ],
                "is_option_object": false,
                "display_key": null,
                "value_key": null,
                "name": "Method",
                "description": "The power transform method",
                "data_type": "string",
                "op_type": "categorical",
                "value": "yeo-johnson",
                "multi_select": false,
                "hidden": false,
                "config_path": "config.algorithm.configuration.method",
                "ui_component": "",
                "_XpmsObjectMixin__type": "CategoricalListConfiguration",
                "_XpmsObjectMixin__api_version": "10.0"
            },
            {
                "name": "standardize",
                "description": "unit-variance normalization to the transformed output",
                "data_type": "boolean",
                "op_type": "categorical",
                "value": true,
                "multi_select": false,
                "hidden": false,
                "config_path": "config.algorithm.configuration.standardize",
                "ui_component": "",
                "_XpmsObjectMixin__type": "BooleanConfiguration",
                "_XpmsObjectMixin__api_version": "10.0",
                "options": [
                    true,
                    false
                ]
            },
            {
                "name": "copy",
                "description": "To copy or not",
                "data_type": "boolean",
                "op_type": "categorical",
                "value": true,
                "multi_select": false,
                "hidden": false,
                "config_path": "config.algorithm.configuration.copy",
                "ui_component": "",
                "_XpmsObjectMixin__type": "BooleanConfiguration",
                "_XpmsObjectMixin__api_version": "10.0",
                "options": [
                    true,
                    false
                ]
            },
            {
                "options": [
                    "any",
                    "all"
                ],
                "is_option_object": false,
                "display_key": null,
                "value_key": null,
                "name": "dependencies",
                "description": "dependency on previous tasks to run",
                "data_type": "string",
                "op_type": "categorical",
                "value": "any",
                "multi_select": false,
                "hidden": false,
                "config_path": "config.dependencies",
                "ui_component": "",
                "_XpmsObjectMixin__type": "CategoricalListConfiguration",
                "_XpmsObjectMixin__api_version": "10.0"
            }
        ]
    },
    "next": [],
    "previous": [],
    "timeout": 3000,
    "retries": 0,
    "state": {},
    "instance_id": "IyL-vBu4QZKj2zGkPMy2hw",
    "created_by": "system",
    "modified_by": "system",
    "cts": "",
    "uts": "",
    "_XpmsObjectMixin__type": "Task",
    "_XpmsObjectMixin__api_version": "10.0"
}