{
    "name": "version 1",
    "description": "",
    "created_by": "system",
    "modified_by": "system",
    "cts": "2020-09-04T08:03:57.294922",
    "uts": "2020-09-04T08:03:57.294933",
    "_XpmsObjectMixin__type": "CustomFunctionVersion",
    "_XpmsObjectMixin__api_version": "9.0",
    "is_enabled": true,
    "is_deleted": false,
    "is_default": true,
    "is_published": true,
    "function_id": "84845139-b116-46ad-8aa6-63689780c39d",
    "function_name": "aggregate_docs",
    "version_id": "86245f89-6fa6-4bc5-814c-57ce632ffded",
    "function_path": "functions/84845139-b116-46ad-8aa6-63689780c39d/86245f89-6fa6-4bc5-814c-57ce632ffded/84845139-b116-46ad-8aa6-63689780c39d_86245f89-6fa6-4bc5-814c-57ce632ffded.py",
    "func_ipynb_path": "functions/84845139-b116-46ad-8aa6-63689780c39d/86245f89-6fa6-4bc5-814c-57ce632ffded/84845139-b116-46ad-8aa6-63689780c39d_86245f89-6fa6-4bc5-814c-57ce632ffded.ipynb",
    "config": []
}