{
    "create_ts": "2021-07-29 07:59:44.785635",
    "task_id": "Nk3b8KM4T12gErvclk68qg",
    "version_id": "v1",
    "task_name": "SKL Random Forest Classifier",
    "task_class": "ml_lib.model.dag_tasks.ml_task.MLTask",
    "name": "SKL Random Forest Classifier",
    "description": "Sklearn Random Forest Classifier",
    "start": null,
    "end": null,
    "tasks": {},
    "config": {
        "source_type": "lib",
        "algorithm": {
            "auto_tuner": {
                "name": "grid_search"
            },
            "class": "sklearn.ensemble.RandomForestClassifier"
        },
        "source": "ml_lib.resources.task_scripts.classification_algo_skl_model_runner",
        "files": [],
        "model_class": "classification"
    },
    "exec_type": null,
    "category": "ml.Ml Task",
    "is_enabled": false,
    "is_published": true,
    "is_deleted": false,
    "compatible_groups": [
        "default_dependency_package_group"
    ],
    "extras": {
        "ui_index": "sklearn.classification.RandomForest",
        "x_config": [
            {
                "options": [
                    "accuracy"
                ],
                "is_option_object": false,
                "display_key": null,
                "value_key": null,
                "name": "scorers",
                "description": "evaluation_metrics",
                "data_type": "string",
                "op_type": "categorical",
                "value": null,
                "multi_select": false,
                "hidden": false,
                "config_path": "config.scorers",
                "ui_component": "",
                "_XpmsObjectMixin__type": "CategoricalListConfiguration",
                "_XpmsObjectMixin__api_version": "10.0"
            },
            {
                "name": "target",
                "description": "target column",
                "data_type": "string",
                "op_type": "continuous",
                "value": "target",
                "multi_select": false,
                "hidden": false,
                "config_path": "config.target",
                "ui_component": "",
                "_XpmsObjectMixin__type": "StringConfiguration",
                "_XpmsObjectMixin__api_version": "10.0"
            },
            {
                "api": "ml/task/list_instances",
                "trigger": "list_ml_task_instances",
                "options": "result.metadata.tasks",
                "request_data": {
                    "model": {
                        "model_id": "",
                        "version_id": ""
                    },
                    "task": {
                        "task_id": ""
                    }
                },
                "display_key": "name",
                "value_key": "instance_id",
                "custom_request_data": [
                    "model.model_id",
                    "model.version_id",
                    "task.task_id"
                ],
                "name": "task reference",
                "description": "link a pre_existing task in the model",
                "data_type": "string",
                "op_type": "categorical",
                "value": "none",
                "multi_select": false,
                "hidden": false,
                "config_path": "config.task_reference",
                "ui_component": "",
                "_XpmsObjectMixin__type": "PlatformApiListConfiguration",
                "_XpmsObjectMixin__api_version": "10.0",
                "is_option_object": true
            },
            {
                "min_value": 10,
                "max_value": 1000,
                "closure": "closed_closed",
                "name": "n_estimators",
                "description": "Number of trees to build",
                "data_type": "integer",
                "op_type": "continuous",
                "value": 100,
                "multi_select": false,
                "hidden": false,
                "config_path": "config.algorithm.configuration.n_estimators",
                "ui_component": "",
                "_XpmsObjectMixin__type": "NumericConfiguration",
                "_XpmsObjectMixin__api_version": "10.0"
            },
            {
                "options": [
                    "gini",
                    "entropy"
                ],
                "is_option_object": false,
                "display_key": null,
                "value_key": null,
                "name": "criterion",
                "description": "Quality of Split",
                "data_type": "string",
                "op_type": "categorical",
                "value": "gini",
                "multi_select": false,
                "hidden": false,
                "config_path": "config.algorithm.configuration.criterion",
                "ui_component": "",
                "_XpmsObjectMixin__type": "CategoricalListConfiguration",
                "_XpmsObjectMixin__api_version": "10.0"
            },
            {
                "options": [
                    "auto",
                    "log2",
                    "sqrt"
                ],
                "is_option_object": false,
                "display_key": null,
                "value_key": null,
                "name": "max_features",
                "description": "Number of features when looking for best split",
                "data_type": "string",
                "op_type": "categorical",
                "value": "auto",
                "multi_select": false,
                "hidden": false,
                "config_path": "config.algorithm.configuration.max_features",
                "ui_component": "",
                "_XpmsObjectMixin__type": "CategoricalListConfiguration",
                "_XpmsObjectMixin__api_version": "10.0"
            },
            {
                "min_value": 0,
                "max_value": 100,
                "closure": "closed_closed",
                "name": "min_weight_fraction_leaf",
                "description": "Minimum weight required to be at Leaf nodes",
                "data_type": "float",
                "op_type": "continuous",
                "value": 0,
                "multi_select": false,
                "hidden": false,
                "config_path": "config.algorithm.configuration.min_weight_fraction_leaf",
                "ui_component": "",
                "_XpmsObjectMixin__type": "NumericConfiguration",
                "_XpmsObjectMixin__api_version": "10.0"
            },
            {
                "min_value": 0,
                "max_value": 100,
                "closure": "closed_closed",
                "name": "min_samples_split",
                "description": "Number of samples required to split an Internal node",
                "data_type": "integer",
                "op_type": "continuous",
                "value": 2,
                "multi_select": false,
                "hidden": false,
                "config_path": "config.algorithm.configuration.min_samples_split",
                "ui_component": "",
                "_XpmsObjectMixin__type": "NumericConfiguration",
                "_XpmsObjectMixin__api_version": "10.0"
            },
            {
                "min_value": 0,
                "max_value": 100,
                "closure": "closed_closed",
                "name": "min_samples_leaf",
                "description": "Number of samples required to be at leaf node",
                "data_type": "integer",
                "op_type": "continuous",
                "value": 1,
                "multi_select": false,
                "hidden": false,
                "config_path": "config.algorithm.configuration.min_samples_leaf",
                "ui_component": "",
                "_XpmsObjectMixin__type": "NumericConfiguration",
                "_XpmsObjectMixin__api_version": "10.0"
            },
            {
                "min_value": 2,
                "max_value": 100,
                "closure": "closed_closed",
                "name": "max_leaf_nodes",
                "description": "Number of Leaf Nodes",
                "data_type": "integer",
                "op_type": "continuous",
                "value": 2,
                "multi_select": false,
                "hidden": false,
                "config_path": "config.algorithm.configuration.max_leaf_nodes",
                "ui_component": "",
                "_XpmsObjectMixin__type": "NumericConfiguration",
                "_XpmsObjectMixin__api_version": "10.0"
            },
            {
                "min_value": 0,
                "max_value": 100,
                "closure": "closed_closed",
                "name": "min_impurity_decrease",
                "description": "Inverse of regularization strength",
                "data_type": "float",
                "op_type": "continuous",
                "value": 0,
                "multi_select": false,
                "hidden": false,
                "config_path": "config.algorithm.configuration.min_impurity_decrease",
                "ui_component": "",
                "_XpmsObjectMixin__type": "NumericConfiguration",
                "_XpmsObjectMixin__api_version": "10.0"
            },
            {
                "name": "bootstrap",
                "description": "Bootstrap samples to build trees",
                "data_type": "boolean",
                "op_type": "categorical",
                "value": true,
                "multi_select": false,
                "hidden": false,
                "config_path": "config.algorithm.configuration.bootstrap",
                "ui_component": "",
                "_XpmsObjectMixin__type": "BooleanConfiguration",
                "_XpmsObjectMixin__api_version": "10.0",
                "options": [
                    true,
                    false
                ]
            },
            {
                "min_value": 0,
                "max_value": 100,
                "closure": "closed_closed",
                "name": "verbose",
                "description": "Controls the Verbosity of tree building process",
                "data_type": "float",
                "op_type": "continuous",
                "value": 1,
                "multi_select": false,
                "hidden": false,
                "config_path": "config.algorithm.configuration.verbose",
                "ui_component": "",
                "_XpmsObjectMixin__type": "NumericConfiguration",
                "_XpmsObjectMixin__api_version": "10.0"
            },
            {
                "name": "oob_score",
                "description": "Use of out of bag samples",
                "data_type": "boolean",
                "op_type": "categorical",
                "value": true,
                "multi_select": false,
                "hidden": false,
                "config_path": "config.algorithm.configuration.oob_score",
                "ui_component": "",
                "_XpmsObjectMixin__type": "BooleanConfiguration",
                "_XpmsObjectMixin__api_version": "10.0",
                "options": [
                    true,
                    false
                ]
            },
            {
                "options": [
                    true,
                    false
                ],
                "is_option_object": false,
                "display_key": null,
                "value_key": null,
                "name": "multi_model",
                "description": "to create model for each class",
                "data_type": "boolean",
                "op_type": "categorical",
                "value": false,
                "multi_select": false,
                "hidden": false,
                "config_path": "config.multi_model",
                "ui_component": "",
                "_XpmsObjectMixin__type": "CategoricalListConfiguration",
                "_XpmsObjectMixin__api_version": "10.0"
            },
            {
                "options": [
                    "any",
                    "all"
                ],
                "is_option_object": false,
                "display_key": null,
                "value_key": null,
                "name": "dependencies",
                "description": "dependency on previous tasks to run",
                "data_type": "string",
                "op_type": "categorical",
                "value": "any",
                "multi_select": false,
                "hidden": false,
                "config_path": "config.dependencies",
                "ui_component": "",
                "_XpmsObjectMixin__type": "CategoricalListConfiguration",
                "_XpmsObjectMixin__api_version": "10.0"
            }
        ]
    },
    "next": [],
    "previous": [],
    "timeout": 3000,
    "retries": 0,
    "state": {},
    "instance_id": "uiI69K64T5Sy4YSDz4_gjw",
    "created_by": "system",
    "modified_by": "system",
    "cts": "",
    "uts": "",
    "_XpmsObjectMixin__type": "Task",
    "_XpmsObjectMixin__api_version": "10.0"
}