{
    "name": "version 1",
    "description": "",
    "created_by": "system",
    "modified_by": "system",
    "cts": "2021-07-05T06:09:58.240601",
    "uts": "2021-07-26T17:36:55.816711",
    "_XpmsObjectMixin__type": "CustomFunctionVersion",
    "_XpmsObjectMixin__api_version": "10.0",
    "is_enabled": true,
    "is_deleted": false,
    "is_default": false,
    "is_published": true,
    "function_id": "b4e906d4-2af4-4cf7-9a2b-122cf8fbd604",
    "function_name": "hma_metadata_chunk",
    "version_id": "61e101fe-226c-4789-9c80-5c4ce5357814",
    "function_path": "functions/b4e906d4-2af4-4cf7-9a2b-122cf8fbd604/61e101fe-226c-4789-9c80-5c4ce5357814/b4e906d4-2af4-4cf7-9a2b-122cf8fbd604_61e101fe-226c-4789-9c80-5c4ce5357814.py",
    "func_ipynb_path": "functions/b4e906d4-2af4-4cf7-9a2b-122cf8fbd604/61e101fe-226c-4789-9c80-5c4ce5357814/b4e906d4-2af4-4cf7-9a2b-122cf8fbd604_61e101fe-226c-4789-9c80-5c4ce5357814.ipynb",
    "config": []
}