{
    "name": "fa04382ba9",
    "description": "",
    "created_by": "system",
    "modified_by": "system",
    "cts": "2021-06-29T17:06:52.108005",
    "uts": "2021-07-27T06:37:52.079386",
    "_XpmsObjectMixin__type": "CustomFunctionVersion",
    "_XpmsObjectMixin__api_version": "10.0",
    "is_enabled": true,
    "is_deleted": false,
    "is_default": false,
    "is_published": true,
    "function_id": "3069487b-74ac-4523-aba3-1a26f4e632e5",
    "function_name": "split_hma_check_files",
    "version_id": "1a541966-20d5-4e3c-8be7-be8bc119e785",
    "function_path": "functions/3069487b-74ac-4523-aba3-1a26f4e632e5/1a541966-20d5-4e3c-8be7-be8bc119e785/3069487b-74ac-4523-aba3-1a26f4e632e5_1a541966-20d5-4e3c-8be7-be8bc119e785.py",
    "func_ipynb_path": "functions/3069487b-74ac-4523-aba3-1a26f4e632e5/1a541966-20d5-4e3c-8be7-be8bc119e785/3069487b-74ac-4523-aba3-1a26f4e632e5_1a541966-20d5-4e3c-8be7-be8bc119e785.ipynb",
    "config": [
        {
            "fieldType": "textbox",
            "config_path": "config.functionconfiguration.number_of_files",
            "data_type": "string",
            "description": "",
            "hidden": false,
            "multi_select": false,
            "name": "number_of_files",
            "op_type": "continuous",
            "ui_component": "",
            "value": null,
            "_XpmsObjectMixin__api_version": "1.0.13",
            "_XpmsObjectMixin__type": "StringConfiguration"
        }
    ]
}