{
    "create_ts": "2021-07-29 08:16:35.255789",
    "task_id": "dc2f63f6-d673-4653-b75a-17ba3da89b53",
    "version_id": "21a0e9a3-26dd-4bdc-8526-0d9dc158e26e",
    "task_name": "ca_pipeline",
    "task_class": "xpms_lib_dag.tasks.dag_task.DagTask",
    "name": "v3",
    "description": "",
    "start": "StartEvent_e84619df-12d6-4a9b-b629-98b802e66bd6",
    "end": "EndEvent_17gne5g",
    "tasks": {
        "StartEvent_e84619df-12d6-4a9b-b629-98b802e66bd6": {
            "create_ts": "2021-07-29 07:59:11.293774",
            "task_id": "dummy_task",
            "version_id": "cKZVrBwbRJCCgdSi2psOjA",
            "task_name": "Dummy Task",
            "task_class": "xpms_lib_dag.tasks.dummy_task.DummyTask",
            "name": "start",
            "description": "",
            "start": null,
            "end": null,
            "tasks": {},
            "config": {},
            "exec_type": null,
            "category": "default.Base",
            "is_enabled": true,
            "is_published": true,
            "is_deleted": false,
            "compatible_groups": [
                "base_dependency_group"
            ],
            "extras": {
                "index": "",
                "x_config": [
                    {
                        "options": [
                            "any",
                            "all"
                        ],
                        "is_option_object": false,
                        "display_key": null,
                        "value_key": null,
                        "name": "dependencies",
                        "description": "dependency on previous tasks to run",
                        "data_type": "string",
                        "op_type": "categorical",
                        "value": "any",
                        "multi_select": false,
                        "hidden": false,
                        "config_path": "config.dependencies",
                        "ui_component": "",
                        "_XpmsObjectMixin__type": "CategoricalListConfiguration",
                        "_XpmsObjectMixin__api_version": "10.0"
                    }
                ]
            },
            "next": [
                "ServiceTask_1u66zf5"
            ],
            "previous": [],
            "timeout": 3000,
            "retries": 0,
            "state": {},
            "instance_id": "rzGmHdToTnyfaah__Q-sgw",
            "created_by": "system",
            "modified_by": "system",
            "cts": "",
            "uts": "",
            "_XpmsObjectMixin__type": "Task",
            "_XpmsObjectMixin__api_version": "10.0",
            "solution_id": "catest2907"
        },
        "EndEvent_17gne5g": {
            "create_ts": "2021-07-29 07:59:11.293774",
            "task_id": "dummy_task",
            "version_id": "cKZVrBwbRJCCgdSi2psOjA",
            "task_name": "Dummy Task",
            "task_class": "xpms_lib_dag.tasks.dummy_task.DummyTask",
            "name": "end",
            "description": "",
            "start": null,
            "end": null,
            "tasks": {},
            "config": {
                "conditions": {}
            },
            "exec_type": null,
            "category": "default.Base",
            "is_enabled": true,
            "is_published": true,
            "is_deleted": false,
            "compatible_groups": [
                "base_dependency_group"
            ],
            "extras": {
                "index": "",
                "x_config": [
                    {
                        "options": [
                            "any",
                            "all"
                        ],
                        "is_option_object": false,
                        "display_key": null,
                        "value_key": null,
                        "name": "dependencies",
                        "description": "dependency on previous tasks to run",
                        "data_type": "string",
                        "op_type": "categorical",
                        "value": "any",
                        "multi_select": false,
                        "hidden": false,
                        "config_path": "config.dependencies",
                        "ui_component": "",
                        "_XpmsObjectMixin__type": "CategoricalListConfiguration",
                        "_XpmsObjectMixin__api_version": "10.0"
                    }
                ]
            },
            "next": [],
            "previous": [
                "Task_0tk1j4s"
            ],
            "timeout": 3000,
            "retries": 0,
            "state": {},
            "instance_id": "rzGmHdToTnyfaah__Q-sgw",
            "created_by": "system",
            "modified_by": "system",
            "cts": "",
            "uts": "",
            "_XpmsObjectMixin__type": "Task",
            "_XpmsObjectMixin__api_version": "10.0",
            "solution_id": "catest2907"
        },
        "Task_05htk5f": {
            "create_ts": "2021-07-28 11:05:52.900614",
            "task_id": "39bb2653-fac4-469c-a4d4-c07eaa4c20b7",
            "version_id": "default",
            "task_name": "split_hma_metadata",
            "task_class": "xpms_lib_dag.tasks.function_task.FunctionTask",
            "name": "split_hma_metadata",
            "description": "imported git function",
            "start": null,
            "end": null,
            "tasks": {},
            "config": {
                "conditions": {},
                "dependencies": "any"
            },
            "exec_type": null,
            "category": "functions.Function",
            "is_enabled": true,
            "is_published": true,
            "is_deleted": false,
            "compatible_groups": [
                "default_dependency_package_group"
            ],
            "extras": {
                "x_config": [
                    {
                        "options": [
                            "any",
                            "all"
                        ],
                        "is_option_object": false,
                        "display_key": null,
                        "value_key": null,
                        "name": "dependencies",
                        "description": "dependency on previous tasks to run",
                        "data_type": "string",
                        "op_type": "categorical",
                        "value": "any",
                        "multi_select": false,
                        "hidden": false,
                        "config_path": "config.dependencies",
                        "ui_component": "",
                        "_XpmsObjectMixin__type": "CategoricalListConfiguration",
                        "_XpmsObjectMixin__api_version": "10.0"
                    }
                ]
            },
            "next": [
                "Task_0tk1j4s"
            ],
            "previous": [
                "ServiceTask_1u66zf5"
            ],
            "timeout": 3000,
            "retries": 0,
            "state": {},
            "instance_id": "OFzz1kraQzeIdA52vx8r3w",
            "solution_id": "catest2907",
            "created_by": "system",
            "modified_by": "system",
            "cts": "",
            "uts": "",
            "_XpmsObjectMixin__type": "Task",
            "_XpmsObjectMixin__api_version": "10.0",
            "exec_grp_id": "0c29aec5-3744-45c0-93d5-eccf0f91b227"
        },
        "Task_0tk1j4s": {
            "create_ts": "2021-07-26 18:17:15.444706",
            "task_id": "9a466e14-a77d-4f2d-8eca-350326459b96",
            "version_id": "default",
            "task_name": "split_hma_batches_record",
            "task_class": "xpms_lib_dag.tasks.function_task.FunctionTask",
            "name": "split_hma_batches_record",
            "description": "imported git function",
            "start": null,
            "end": null,
            "tasks": {},
            "config": {
                "conditions": {},
                "dependencies": "any",
                "functionconfiguration": {
                    "NUM_CLAIMS_PER_FILES": "\"100\""
                }
            },
            "exec_type": null,
            "category": "functions.Function",
            "is_enabled": true,
            "is_published": true,
            "is_deleted": false,
            "compatible_groups": [
                "default_dependency_package_group"
            ],
            "extras": {
                "x_config": [
                    {
                        "options": [
                            "any",
                            "all"
                        ],
                        "is_option_object": false,
                        "display_key": null,
                        "value_key": null,
                        "name": "dependencies",
                        "description": "dependency on previous tasks to run",
                        "data_type": "string",
                        "op_type": "categorical",
                        "value": "any",
                        "multi_select": false,
                        "hidden": false,
                        "config_path": "config.dependencies",
                        "ui_component": "",
                        "_XpmsObjectMixin__type": "CategoricalListConfiguration",
                        "_XpmsObjectMixin__api_version": "10.0"
                    },
                    {
                        "fieldType": "textbox",
                        "config_path": "config.functionconfiguration.NUM_CLAIMS_PER_FILES",
                        "data_type": "string",
                        "description": "",
                        "hidden": false,
                        "multi_select": false,
                        "name": "Numbers_of_claims",
                        "op_type": "continuous",
                        "ui_component": "",
                        "value": null,
                        "_XpmsObjectMixin__api_version": "1.0.13",
                        "_XpmsObjectMixin__type": "StringConfiguration"
                    }
                ]
            },
            "next": [
                "EndEvent_17gne5g"
            ],
            "previous": [
                "Task_05htk5f"
            ],
            "timeout": 3000,
            "retries": 0,
            "state": {},
            "instance_id": "wEF979LLRjGNqcnIss9G8g",
            "solution_id": "catest2907",
            "created_by": "system",
            "modified_by": "system",
            "cts": "",
            "uts": "",
            "_XpmsObjectMixin__type": "Task",
            "_XpmsObjectMixin__api_version": "10.0",
            "exec_grp_id": "0c29aec5-3744-45c0-93d5-eccf0f91b227"
        },
        "ServiceTask_1u66zf5": {
            "create_ts": "2021-07-29 08:00:49.976478",
            "task_id": "SY2YWVPkTVy6i0xfYVjsqg",
            "version_id": "default",
            "task_name": "Ingest Document",
            "task_class": "xpms_lib_dag.tasks.mq_task.MqTask",
            "name": "Ingest Document",
            "description": "service to ingest a document",
            "start": null,
            "end": null,
            "tasks": {},
            "config": {
                "conditions": {},
                "dependencies": "any",
                "data": {
                    "configuration": {
                        "transactional_commit": false
                    }
                },
                "task_max_retries": 3,
                "time_out": 0
            },
            "exec_type": null,
            "category": "services.Document Processing",
            "is_enabled": false,
            "is_published": true,
            "is_deleted": false,
            "compatible_groups": [
                "base_dependency_group"
            ],
            "extras": {
                "x_config": [
                    {
                        "options": [
                            "any",
                            "all"
                        ],
                        "is_option_object": false,
                        "display_key": null,
                        "value_key": null,
                        "name": "dependencies",
                        "description": "dependency on previous tasks to run",
                        "data_type": "string",
                        "op_type": "categorical",
                        "value": "any",
                        "multi_select": false,
                        "hidden": false,
                        "config_path": "config.dependencies",
                        "ui_component": "",
                        "_XpmsObjectMixin__type": "CategoricalListConfiguration",
                        "_XpmsObjectMixin__api_version": "10.0"
                    },
                    {
                        "name": "Transactional Commit",
                        "description": "Enable or Disable transactional commit",
                        "data_type": "boolean",
                        "op_type": "categorical",
                        "value": false,
                        "multi_select": false,
                        "hidden": false,
                        "config_path": "config.data.configuration.transactional_commit",
                        "ui_component": "",
                        "_XpmsObjectMixin__type": "BooleanConfiguration",
                        "_XpmsObjectMixin__api_version": "10.0",
                        "options": [
                            true,
                            false
                        ]
                    },
                    {
                        "min_value": 0,
                        "max_value": 100,
                        "closure": "closed_closed",
                        "name": "task_max_retries",
                        "description": "max no of retries",
                        "data_type": "integer",
                        "op_type": "continuous",
                        "value": 3,
                        "multi_select": false,
                        "hidden": false,
                        "config_path": "config.task_max_retries",
                        "ui_component": "",
                        "_XpmsObjectMixin__type": "NumericConfiguration",
                        "_XpmsObjectMixin__api_version": "10.0"
                    },
                    {
                        "min_value": 0,
                        "max_value": 20000,
                        "closure": "closed_closed",
                        "name": "time_out",
                        "description": "max time out in seconds",
                        "data_type": "integer",
                        "op_type": "continuous",
                        "value": 0,
                        "multi_select": false,
                        "hidden": false,
                        "config_path": "config.time_out",
                        "ui_component": "",
                        "_XpmsObjectMixin__type": "NumericConfiguration",
                        "_XpmsObjectMixin__api_version": "10.0"
                    }
                ]
            },
            "next": [
                "Task_05htk5f"
            ],
            "previous": [
                "StartEvent_e84619df-12d6-4a9b-b629-98b802e66bd6"
            ],
            "timeout": "10",
            "retries": 0,
            "state": {},
            "instance_id": "XHzapmN-SzqjYGVWQ5WYyQ",
            "created_by": "system",
            "modified_by": "system",
            "cts": "",
            "uts": "",
            "_XpmsObjectMixin__type": "Task",
            "_XpmsObjectMixin__api_version": "10.0",
            "solution_id": "catest2907"
        }
    },
    "config": {},
    "exec_type": null,
    "category": "pipeline",
    "is_enabled": true,
    "is_published": true,
    "is_deleted": false,
    "compatible_groups": [
        "base_dependency_group"
    ],
    "extras": {},
    "next": [],
    "previous": [],
    "timeout": 3000,
    "retries": 0,
    "state": {},
    "instance_id": "i_LvBfSbTM2zI3kDhyzNUw",
    "created_by": "system",
    "modified_by": "system",
    "cts": "",
    "uts": "",
    "_XpmsObjectMixin__type": "Task",
    "_XpmsObjectMixin__api_version": "10.0"
}